<?xml version="1.0" standalone="no"?>
<!DOCTYPE svg PUBLIC "-//W3C//DTD SVG 20010904//EN"
 "http://www.w3.org/TR/2001/REC-SVG-20010904/DTD/svg10.dtd">
<svg version="1.0" xmlns="http://www.w3.org/2000/svg"
 width="594.000000pt" height="594.000000pt" viewBox="0 0 594.000000 594.000000"
 preserveAspectRatio="xMidYMid meet">
<metadata>
Created by potrace 1.11, written by Peter Selinger 2001-2013
</metadata>
<g transform="translate(0.000000,594.000000) scale(0.100000,-0.100000)"
fill="#000000" stroke="none">
<path d="M2750 5920 c-383 -28 -780 -138 -1129 -315 -458 -231 -893 -631
-1170 -1077 -229 -366 -375 -787 -426 -1223 -21 -182 -22 -505 -1 -684 55
-463 212 -899 464 -1281 120 -183 231 -320 387 -475 460 -460 1029 -744 1690
-842 171 -25 639 -25 810 0 450 67 857 219 1219 457 179 118 317 230 471 385
478 477 772 1084 851 1756 21 179 20 502 -1 684 -51 436 -197 857 -426 1223
-236 380 -596 737 -974 967 -528 321 -1143 469 -1765 425z m565 -625 c721
-110 1341 -535 1705 -1169 299 -521 384 -1153 235 -1747 -39 -154 -91 -294
-170 -454 -322 -659 -934 -1131 -1650 -1274 -300 -59 -630 -59 -930 0 -260 52
-522 153 -745 287 -87 52 -280 190 -280 200 0 4 369 376 819 827 l820 820 16
59 c31 106 -10 208 -103 263 -61 36 -155 39 -217 6 -24 -13 -374 -356 -850
-832 -445 -446 -813 -811 -816 -811 -4 0 -36 39 -72 88 -419 563 -564 1286
-396 1972 184 750 743 1374 1474 1645 175 65 409 117 630 139 89 9 425 -3 530
-19z"/>
</g>
</svg>
